{
  "_class": "group",
  "do_objectID": "1BA5CEFE-739C-4472-8244-951FC8AF4E8A",
  "exportOptions": {
    "_class": "exportOptions",
    "exportFormats": [
    ],
    "includedLayerIds": [
    ],
    "layerOptions": 0,
    "shouldTrim": false
  },
  "frame": {
    "_class": "rect",
    "constrainProportions": false,
    "height": 779,
    "width": 1802,
    "x": -138,
    "y": 94
  },
  "hasClickThrough": false,
  "isFlippedHorizontal": false,
  "isFlippedVertical": false,
  "isLocked": false,
  "isVisible": true,
  "layerListExpandedType": 2,
  "layers": [
    {
      "class": "group",
      "id": "4EFA36D7-0B43-4B65-8869-909EF0BAF3B2"
    },
    {
      "class": "shapeGroup",
      "id": "7A295DA8-EEAE-4E71-B82E-896E2054141D"
    },
    {
      "class": "group",
      "id": "B09751A6-65A3-4D4B-8D5D-DA9AACE970DA"
    },
    {
      "class": "group",
      "id": "9AA32D24-2203-43CB-892F-96A980C5289C"
    },
    {
      "class": "group",
      "id": "5B44225B-BDC8-4D0C-ACB9-80E8E2E258EC"
    },
    {
      "class": "group",
      "id": "A1F4E656-900C-4ADD-93AF-10D6E9CC9B48"
    },
    {
      "class": "group",
      "id": "099BA5BF-9CF3-4A06-9855-7BB5716C8341"
    }
  ],
  "name": "ganttchart",
  "nameIsFixed": true,
  "resizingConstraint": 63,
  "resizingType": 0,
  "rotation": 0,
  "shouldBreakMaskChain": false,
  "style": {
    "_class": "style",
    "endDecorationType": 0,
    "miterLimit": 10,
    "startDecorationType": 0
  }
}