{
  "_class": "shapeGroup",
  "clippingMaskMode": 0,
  "do_objectID": "783EDB33-C6DF-46D8-8F65-E0B34DBA4F0B",
  "exportOptions": {
    "_class": "exportOptions",
    "exportFormats": [
    ],
    "includedLayerIds": [
    ],
    "layerOptions": 0,
    "shouldTrim": false
  },
  "frame": {
    "_class": "rect",
    "constrainProportions": false,
    "height": 32,
    "width": 32,
    "x": 0,
    "y": 0
  },
  "hasClickThrough": false,
  "hasClippingMask": false,
  "isFlippedHorizontal": false,
  "isFlippedVertical": false,
  "isLocked": false,
  "isVisible": true,
  "layerListExpandedType": 1,
  "layers": [
    {
      "class": "rectangle",
      "id": "EAEEEADA-E733-447F-B1F4-4050D1A9A17E"
    }
  ],
  "name": "themes/indigo/$indigo-025 :: D1D1F0 :: 30%",
  "nameIsFixed": true,
  "resizingConstraint": 63,
  "resizingType": 0,
  "rotation": 0,
  "shouldBreakMaskChain": false,
  "style": {
    "sharedObjectID": "0174EEF4-D728-45D3-A00B-D5CB2D73A45C"
  },
  "windingRule": 1
}