{
  "_class": "group",
  "do_objectID": "D6F51189-A257-4978-AE2A-EC1064CB60A3",
  "exportOptions": {
    "_class": "exportOptions",
    "exportFormats": [
    ],
    "includedLayerIds": [
    ],
    "layerOptions": 0,
    "shouldTrim": false
  },
  "frame": {
    "_class": "rect",
    "constrainProportions": false,
    "height": 32,
    "width": 521,
    "x": 971,
    "y": 4
  },
  "hasClickThrough": false,
  "isFlippedHorizontal": false,
  "isFlippedVertical": false,
  "isLocked": false,
  "isVisible": true,
  "layerListExpandedType": 2,
  "layers": [
    {
      "class": "symbolInstance",
      "id": "75D5CBBA-E714-4D8B-BF11-FCB5AD3788AE"
    },
    {
      "class": "symbolInstance",
      "id": "326239ED-77D8-404B-944A-7E4C7FC08BE7"
    },
    {
      "class": "symbolInstance",
      "id": "624D4D5D-B29D-4AA6-9DDD-CC5019B21F49"
    },
    {
      "class": "symbolInstance",
      "id": "EC1B10C6-75CB-4F23-B2F9-58E8185E8B6D"
    },
    {
      "class": "symbolInstance",
      "id": "EFA2820F-998A-45AD-8FFA-117ABCF00EE5"
    },
    {
      "class": "symbolInstance",
      "id": "DB304AF6-712C-4FA8-849F-432642B8AE0C"
    }
  ],
  "name": "right-aligned",
  "nameIsFixed": true,
  "resizingConstraint": 28,
  "resizingType": 0,
  "rotation": 0,
  "shouldBreakMaskChain": false,
  "style": {
    "_class": "style",
    "endDecorationType": 0,
    "miterLimit": 10,
    "startDecorationType": 0
  }
}