{
  "_class": "group",
  "do_objectID": "5C650F8A-8E1E-4962-897C-D56A3C2B0821",
  "exportOptions": {
    "_class": "exportOptions",
    "exportFormats": [
    ],
    "includedLayerIds": [
    ],
    "layerOptions": 0,
    "shouldTrim": false
  },
  "frame": {
    "_class": "rect",
    "constrainProportions": false,
    "height": 68,
    "width": 1274,
    "x": 3,
    "y": 0
  },
  "hasClickThrough": false,
  "isFlippedHorizontal": false,
  "isFlippedVertical": false,
  "isLocked": false,
  "isVisible": true,
  "layerListExpandedType": 0,
  "layers": [
    {
      "class": "symbolInstance",
      "id": "C2746016-8486-44A5-8C4C-A908FFF5A2AA"
    },
    {
      "class": "symbolInstance",
      "id": "4DE9332F-CE28-415A-8A36-10BF7038E980"
    },
    {
      "class": "symbolInstance",
      "id": "6B347AFF-F256-4DA8-BDDC-7F2773CBFF32"
    },
    {
      "class": "symbolInstance",
      "id": "5C757C6D-13A7-4300-8AFA-BE58FDC78546"
    },
    {
      "class": "symbolInstance",
      "id": "025C16F0-2BFC-492A-91F7-C8B18D7EB656"
    },
    {
      "class": "symbolInstance",
      "id": "C2CA002D-0FFE-467B-9696-9A64A6AF7E60"
    },
    {
      "class": "symbolInstance",
      "id": "D47B246E-6B44-4A63-A6CF-921715BE8741"
    },
    {
      "class": "symbolInstance",
      "id": "170CDD62-E4A0-4E28-8BBF-186FB8ADCF5B"
    },
    {
      "class": "symbolInstance",
      "id": "FF016A82-902D-4926-BB60-60F5679B84D8"
    },
    {
      "class": "symbolInstance",
      "id": "AE2B59CC-962F-45AD-BFC5-9EA95C594FD0"
    },
    {
      "class": "symbolInstance",
      "id": "3041C18D-9E5B-4B48-A5FF-9F243EAD1C25"
    },
    {
      "class": "symbolInstance",
      "id": "377FDF03-6DD9-4084-8BEF-C1C42A5E3C54"
    },
    {
      "class": "symbolInstance",
      "id": "97A84EE8-99A4-4AA8-BCA0-70630A6290CB"
    },
    {
      "class": "symbolInstance",
      "id": "A710B1D9-5990-44B8-8883-29EA4C88B5AE"
    }
  ],
  "name": "Group 2",
  "nameIsFixed": false,
  "resizingConstraint": 63,
  "resizingType": 0,
  "rotation": 0,
  "shouldBreakMaskChain": false,
  "style": {
    "_class": "style",
    "endDecorationType": 0,
    "miterLimit": 10,
    "startDecorationType": 0
  }
}