<?xml version="1.0" encoding="UTF-8"?>
<svg width="16px" height="16px" viewBox="0 0 16 16" version="1.1" xmlns="http://www.w3.org/2000/svg" xmlns:xlink="http://www.w3.org/1999/xlink">
    <!-- Generator: Sketch 64 (93537) - https://sketch.com -->
    <title>icn/chevron-double-lg-left</title>
    <desc>Created with Sketch.</desc>
    <g id="icn/chevron-double-lg-left" stroke="none" stroke-width="1" fill="none" fill-rule="evenodd">
        <path d="M2.29289,7.29289 L7.29289,2.29289 C7.68342,1.90237 8.31658,1.90237 8.70711,2.29289 C9.06759,2.65337923 9.09531923,3.22060645 8.79029769,3.61290152 L8.70711,3.70711 L4.41421,8 L8.70711,12.2929 C9.09763,12.6834 9.09763,13.3166 8.70711,13.7071 C8.34662077,14.0675615 7.77939355,14.0952893 7.38709848,13.7902834 L7.29289,13.7071 L2.29289,8.70711 C1.93241,8.34662077 1.90468077,7.77939355 2.20970231,7.38709848 L2.29289,7.29289 L7.29289,2.29289 L2.29289,7.29289 Z M7.29289,7.29289 L12.2929,2.29289 C12.6834,1.90237 13.3166,1.90237 13.7071,2.29289 C14.0675615,2.65337923 14.0952893,3.22060645 13.7902834,3.61290152 L13.7071,3.70711 L9.41421,8 L13.7071,12.2929 C14.0976,12.6834 14.0976,13.3166 13.7071,13.7071 C13.3466385,14.0675615 12.7793793,14.0952893 12.3871027,13.7902834 L12.2929,13.7071 L7.29289,8.70711 C6.93241,8.34662077 6.90468077,7.77939355 7.20970231,7.38709848 L7.29289,7.29289 L12.2929,2.29289 L7.29289,7.29289 Z" id="icon" fill="#000000"></path>
    </g>
</svg>